…
write.csv(mtcars, tmp_mtcars)
write.csv(iris, tmp_iris)

found = seekr::seek(
  pattern = "(?i)toyota|honda|setosa", 
  path = tempdir(), 
  filter = "\\.csv$"
)
  
print(found)
#> # A tibble: 53 × 6
#>     file path                      line match  matches   content                
#>    <int> <chr>                    <int> <chr>  <list>    <chr>                  
#>  1     1 /01mtcars5583ada6cf5.csv    20 Honda  <chr [1]> "\"Honda Civic\",30.4,…
#>  2     1 /01mtcars5583ada6cf5.csv    21 Toyota <chr [1]> "\"Toyota Corolla\",33…
#>  3     1 /01mtcars5583ada6cf5.csv    22 Toyota <chr [1]> "\"Toyota Corona\",21.…
#>  4     2 /02iris55843615516.csv       2 setosa <chr [1]> "\"1\",5.1,3.5,1.4,0.2…
#>  5     2 /02iris55843615516.csv       3 setosa <chr [1]> "\"2\",4.9,3,1.4,0.2,\…
#>  6     2 /02iris55843615516.csv       4 setosa <chr [1]> "\"3\",4.7,3.2,1.3,0.2…
#>  7     2 /02iris55843615516.csv       5 setosa <chr [1]> "\"4\",4.6,3.1,1.5,0.2…
#>  8     2 /02iris55843615516.csv       6 setosa <chr [1]> "\"5\",5,3.6,1.4,0.2,\…
#>  9     2 /02iris55843615516.csv       7 setosa <chr [1]> "\"6\",5.4,3.9,1.7,0.4…
#> 10     2 /02iris55843615516.csv       8 setosa <chr [1]> "\"7\",4.6,3.4,1.4,0.3…
#> # ℹ 43 more rows
…
